Homework 2
…
Generate a data frame that summarizes the number of mass shootings per year.

#Create a new data frame for mass shootings per year called mass_shootings_yearly

mass_shootings_yearly<- mass_shootings %>% 
  #Filter out any Na's
  filter(!is.na(year)) %>% 
  #group by year and summarize the count of mass shootings
  group_by(year) %>% 
  summarize(Count = n())

mass_shootings_yearly

# A tibble: 37 × 2
    year Count
   <dbl> <int>
 1  1982     1
 2  1984     2
 3  1986     1
 4  1987     1
 5  1988     1
 6  1989     2
 7  1990     1
 8  1991     3
 9  1992     2
10  1993     4
# ℹ 27 more rows
…
